{
  "releases": [
    {
      "slug": "31az2uvoh4",
      "title": "AwesomeConf ticket",
      "archived": false,
      "default_quantity": 0,
      "donation": false,
      "enable_super_combo_summary": true,
      "end_at": null,
      "has_success_message": true,
      "has_fail_message": false,
      "invoice": true,
      "max_donation": null,
      "max_tickets_per_person": null,
      "metadata": null,
      "min_tickets_per_person": null,
      "min_donation": null,
      "not_a_ticket": false,
      "position": 0,
      "price": "1.0",
      "quantity": null,
      "question_ids": [
        1005357,
        1292,
        1295,
        1009604
      ],
      "request_company_name": false,
      "request_vat_number": false,
      "require_billing_address": null,
      "require_credit_card_for_sold_out_waiting_list": false,
      "require_email": true,
      "require_name": false,
      "secret": false,
      "show_price": true,
      "state_name": null,
      "start_at": "2012-05-08T09:41:00.000-07:00",
      "waiting_list_enabled_during_locked": false,
      "waiting_list_enabled_during_sold_out": false,
      "questions": [
        {
          "id": 1005357,
          "title": "Country",
          "field_type": "Country",
          "include_free_text_field": false,
          "required": true,
          "slug": "country"
        },
        {
          "id": 1292,
          "title": "Session 1 - First Choice",
          "field_type": "Checkboxes",
          "include_free_text_field": true,
          "required": true,
          "slug": "session-1-first-choice"
        },
        {
          "id": 1295,
          "title": "Session 1 — Third Choice",
          "field_type": "Select",
          "include_free_text_field": false,
          "required": false,
          "slug": "session-1-third-choice"
        },
        {
          "id": 1009604,
          "title": "T-Shirt Size",
          "field_type": "Select",
          "include_free_text_field": false,
          "required": false,
          "slug": "t-shirt-size"
        }
      ]
    },
    {
      "slug": "taxy-ticket",
      "title": "Taxy Ticket",
      "archived": false,
      "default_quantity": 0,
      "donation": false,
      "enable_super_combo_summary": true,
      "end_at": null,
      "has_success_message": false,
      "has_fail_message": false,
      "invoice": false,
      "max_donation": null,
      "max_tickets_per_person": null,
      "metadata": null,
      "min_tickets_per_person": null,
      "min_donation": null,
      "not_a_ticket": false,
      "position": 0,
      "price": "999.0",
      "quantity": null,
      "question_ids": [],
      "request_company_name": false,
      "request_vat_number": true,
      "require_billing_address": null,
      "require_credit_card_for_sold_out_waiting_list": false,
      "require_email": true,
      "require_name": false,
      "secret": false,
      "show_price": true,
      "state_name": null,
      "start_at": null,
      "waiting_list_enabled_during_locked": false,
      "waiting_list_enabled_during_sold_out": false,
      "questions": []
    },
    {
      "slug": "multi-vat",
      "title": "Multi VAT",
      "archived": false,
      "default_quantity": 0,
      "donation": false,
      "enable_super_combo_summary": true,
      "end_at": null,
      "has_success_message": false,
      "has_fail_message": false,
      "invoice": false,
      "max_donation": null,
      "max_tickets_per_person": null,
      "metadata": null,
      "min_tickets_per_person": null,
      "min_donation": null,
      "not_a_ticket": false,
      "position": 0,
      "price": "700.0",
      "quantity": null,
      "question_ids": [],
      "request_company_name": false,
      "request_vat_number": false,
      "require_billing_address": null,
      "require_credit_card_for_sold_out_waiting_list": false,
      "require_email": true,
      "require_name": false,
      "secret": false,
      "show_price": true,
      "state_name": null,
      "start_at": null,
      "waiting_list_enabled_during_locked": false,
      "waiting_list_enabled_during_sold_out": false,
      "questions": []
    },
    {
      "slug": "b5w6dw-haas",
      "title": "Ship It! Ticket",
      "archived": false,
      "default_quantity": 0,
      "donation": false,
      "enable_super_combo_summary": true,
      "end_at": null,
      "has_success_message": false,
      "has_fail_message": false,
      "invoice": false,
      "max_donation": null,
      "max_tickets_per_person": null,
      "metadata": null,
      "min_tickets_per_person": null,
      "min_donation": null,
      "not_a_ticket": false,
      "position": 2,
      "price": null,
      "quantity": 144,
      "question_ids": [
        200
      ],
      "request_company_name": null,
      "request_vat_number": null,
      "require_billing_address": null,
      "require_credit_card_for_sold_out_waiting_list": false,
      "require_email": true,
      "require_name": false,
      "secret": false,
      "show_price": true,
      "state_name": null,
      "start_at": "2013-04-08T10:04:00.000-07:00",
      "waiting_list_enabled_during_locked": false,
      "waiting_list_enabled_during_sold_out": true,
      "questions": [
        {
          "id": 200,
          "title": "Phone Number",
          "field_type": "Text",
          "include_free_text_field": false,
          "required": true,
          "slug": "phone-number"
        }
      ]
    },
    {
      "slug": "a4kyofr6fzw",
      "title": "Options",
      "archived": false,
      "default_quantity": 0,
      "donation": false,
      "enable_super_combo_summary": true,
      "end_at": null,
      "has_success_message": false,
      "has_fail_message": false,
      "invoice": false,
      "max_donation": null,
      "max_tickets_per_person": null,
      "metadata": null,
      "min_tickets_per_person": null,
      "min_donation": null,
      "not_a_ticket": false,
      "position": 3,
      "price": null,
      "quantity": 2,
      "question_ids": [
        1292,
        1293,
        1295
      ],
      "request_company_name": null,
      "request_vat_number": null,
      "require_billing_address": null,
      "require_credit_card_for_sold_out_waiting_list": false,
      "require_email": true,
      "require_name": false,
      "secret": false,
      "show_price": true,
      "state_name": null,
      "start_at": "2013-10-09T10:07:00.000-07:00",
      "waiting_list_enabled_during_locked": false,
      "waiting_list_enabled_during_sold_out": true,
      "questions": [
        {
          "id": 1292,
          "title": "Session 1 - First Choice",
          "field_type": "Checkboxes",
          "include_free_text_field": true,
          "required": true,
          "slug": "session-1-first-choice"
        },
        {
          "id": 1293,
          "title": "Session 1 – Second Choice",
          "field_type": "Select",
          "include_free_text_field": false,
          "required": true,
          "slug": "session-1-second-choice"
        },
        {
          "id": 1295,
          "title": "Session 1 — Third Choice",
          "field_type": "Select",
          "include_free_text_field": false,
          "required": false,
          "slug": "session-1-third-choice"
        }
      ]
    },
    {
      "slug": "2njsg46o-tu",
      "title": "Secret 2",
      "archived": false,
      "default_quantity": 0,
      "donation": false,
      "enable_super_combo_summary": true,
      "end_at": null,
      "has_success_message": false,
      "has_fail_message": false,
      "invoice": false,
      "max_donation": null,
      "max_tickets_per_person": null,
      "metadata": null,
      "min_tickets_per_person": null,
      "min_donation": null,
      "not_a_ticket": false,
      "position": 4,
      "price": null,
      "quantity": null,
      "question_ids": [],
      "request_company_name": null,
      "request_vat_number": null,
      "require_billing_address": null,
      "require_credit_card_for_sold_out_waiting_list": false,
      "require_email": true,
      "require_name": false,
      "secret": true,
      "show_price": true,
      "state_name": null,
      "start_at": "2013-10-21T03:04:27.000-07:00",
      "waiting_list_enabled_during_locked": false,
      "waiting_list_enabled_during_sold_out": false,
      "questions": []
    },
    {
      "slug": "yloc29eojvm",
      "title": "Secret 3",
      "archived": false,
      "default_quantity": 0,
      "donation": false,
      "enable_super_combo_summary": true,
      "end_at": null,
      "has_success_message": false,
      "has_fail_message": false,
      "invoice": false,
      "max_donation": null,
      "max_tickets_per_person": null,
      "metadata": null,
      "min_tickets_per_person": null,
      "min_donation": null,
      "not_a_ticket": false,
      "position": 5,
      "price": "1.0",
      "quantity": null,
      "question_ids": [],
      "request_company_name": null,
      "request_vat_number": null,
      "require_billing_address": null,
      "require_credit_card_for_sold_out_waiting_list": false,
      "require_email": true,
      "require_name": false,
      "secret": true,
      "show_price": true,
      "state_name": null,
      "start_at": "2014-02-26T01:45:32.000-08:00",
      "waiting_list_enabled_during_locked": false,
      "waiting_list_enabled_during_sold_out": false,
      "questions": []
    },
    {
      "slug": "kq7b8mhzf0c",
      "title": "VIP",
      "archived": false,
      "default_quantity": null,
      "donation": false,
      "enable_super_combo_summary": true,
      "end_at": null,
      "has_success_message": false,
      "has_fail_message": false,
      "invoice": false,
      "max_donation": null,
      "max_tickets_per_person": 2,
      "metadata": null,
      "min_tickets_per_person": null,
      "min_donation": null,
      "not_a_ticket": false,
      "position": 6,
      "price": "1.0",
      "quantity": null,
      "question_ids": [],
      "request_company_name": null,
      "request_vat_number": null,
      "require_billing_address": null,
      "require_credit_card_for_sold_out_waiting_list": false,
      "require_email": true,
      "require_name": false,
      "secret": false,
      "show_price": true,
      "state_name": null,
      "start_at": "2014-02-27T06:16:00.000-08:00",
      "waiting_list_enabled_during_locked": false,
      "waiting_list_enabled_during_sold_out": false,
      "questions": []
    },
    {
      "slug": "7rrj3yc4fwa",
      "title": "RailsGirls Ticket",
      "archived": false,
      "default_quantity": 1,
      "donation": false,
      "enable_super_combo_summary": true,
      "end_at": "2014-12-02T16:00:00.000-08:00",
      "has_success_message": false,
      "has_fail_message": false,
      "invoice": false,
      "max_donation": null,
      "max_tickets_per_person": 1,
      "metadata": null,
      "min_tickets_per_person": null,
      "min_donation": null,
      "not_a_ticket": false,
      "position": 7,
      "price": "695.0",
      "quantity": 10,
      "question_ids": [],
      "request_company_name": null,
      "request_vat_number": null,
      "require_billing_address": null,
      "require_credit_card_for_sold_out_waiting_list": false,
      "require_email": true,
      "require_name": false,
      "secret": true,
      "show_price": true,
      "state_name": null,
      "start_at": "2014-06-04T06:55:04.000-07:00",
      "waiting_list_enabled_during_locked": false,
      "waiting_list_enabled_during_sold_out": false,
      "questions": []
    },
    {
      "slug": "6-y4uf0gon8",
      "title": "Ticket to Delight",
      "archived": false,
      "default_quantity": 0,
      "donation": false,
      "enable_super_combo_summary": true,
      "end_at": "2014-12-02T16:00:00.000-08:00",
      "has_success_message": false,
      "has_fail_message": false,
      "invoice": false,
      "max_donation": null,
      "max_tickets_per_person": null,
      "metadata": null,
      "min_tickets_per_person": null,
      "min_donation": null,
      "not_a_ticket": false,
      "position": 8,
      "price": null,
      "quantity": null,
      "question_ids": [],
      "request_company_name": null,
      "request_vat_number": null,
      "require_billing_address": null,
      "require_credit_card_for_sold_out_waiting_list": false,
      "require_email": true,
      "require_name": false,
      "secret": false,
      "show_price": true,
      "state_name": null,
      "start_at": "2014-06-17T04:42:00.000-07:00",
      "waiting_list_enabled_during_locked": false,
      "waiting_list_enabled_during_sold_out": false,
      "questions": []
    },
    {
      "slug": "8-ze45q9biw",
      "title": "Pure Awesome",
      "archived": false,
      "default_quantity": 0,
      "donation": false,
      "enable_super_combo_summary": true,
      "end_at": "2014-12-02T16:00:00.000-08:00",
      "has_success_message": false,
      "has_fail_message": false,
      "invoice": false,
      "max_donation": null,
      "max_tickets_per_person": null,
      "metadata": null,
      "min_tickets_per_person": null,
      "min_donation": null,
      "not_a_ticket": false,
      "position": 9,
      "price": null,
      "quantity": null,
      "question_ids": [],
      "request_company_name": null,
      "request_vat_number": null,
      "require_billing_address": null,
      "require_credit_card_for_sold_out_waiting_list": false,
      "require_email": true,
      "require_name": false,
      "secret": true,
      "show_price": true,
      "state_name": null,
      "start_at": "2014-06-17T04:46:41.000-07:00",
      "waiting_list_enabled_during_locked": false,
      "waiting_list_enabled_during_sold_out": false,
      "questions": []
    },
    {
      "slug": "8voi6bbwnry",
      "title": "Paul's New Ticket from iOS",
      "archived": false,
      "default_quantity": 0,
      "donation": false,
      "enable_super_combo_summary": true,
      "end_at": "2014-12-02T16:00:00.000-08:00",
      "has_success_message": false,
      "has_fail_message": false,
      "invoice": false,
      "max_donation": null,
      "max_tickets_per_person": null,
      "metadata": null,
      "min_tickets_per_person": null,
      "min_donation": null,
      "not_a_ticket": false,
      "position": 10,
      "price": null,
      "quantity": null,
      "question_ids": [],
      "request_company_name": null,
      "request_vat_number": null,
      "require_billing_address": null,
      "require_credit_card_for_sold_out_waiting_list": false,
      "require_email": true,
      "require_name": false,
      "secret": false,
      "show_price": true,
      "state_name": null,
      "start_at": "2014-07-29T09:54:02.000-07:00",
      "waiting_list_enabled_during_locked": false,
      "waiting_list_enabled_during_sold_out": false,
      "questions": []
    },
    {
      "slug": "mayjrqj60zy",
      "title": "Invoice Ticket",
      "archived": false,
      "default_quantity": 0,
      "donation": false,
      "enable_super_combo_summary": true,
      "end_at": "2014-12-02T16:00:00.000-08:00",
      "has_success_message": false,
      "has_fail_message": false,
      "invoice": false,
      "max_donation": null,
      "max_tickets_per_person": null,
      "metadata": null,
      "min_tickets_per_person": null,
      "min_donation": null,
      "not_a_ticket": false,
      "position": 11,
      "price": "1.0",
      "quantity": null,
      "question_ids": [],
      "request_company_name": null,
      "request_vat_number": null,
      "require_billing_address": null,
      "require_credit_card_for_sold_out_waiting_list": false,
      "require_email": true,
      "require_name": false,
      "secret": false,
      "show_price": true,
      "state_name": null,
      "start_at": "2014-08-07T10:10:24.000-07:00",
      "waiting_list_enabled_during_locked": false,
      "waiting_list_enabled_during_sold_out": false,
      "questions": []
    },
    {
      "slug": "oslenhua3cm",
      "title": "Smooth as butter",
      "archived": false,
      "default_quantity": 0,
      "donation": false,
      "enable_super_combo_summary": true,
      "end_at": "2014-12-02T16:00:00.000-08:00",
      "has_success_message": false,
      "has_fail_message": false,
      "invoice": false,
      "max_donation": null,
      "max_tickets_per_person": null,
      "metadata": null,
      "min_tickets_per_person": null,
      "min_donation": null,
      "not_a_ticket": false,
      "position": 13,
      "price": null,
      "quantity": null,
      "question_ids": [],
      "request_company_name": null,
      "request_vat_number": null,
      "require_billing_address": null,
      "require_credit_card_for_sold_out_waiting_list": false,
      "require_email": true,
      "require_name": false,
      "secret": false,
      "show_price": true,
      "state_name": null,
      "start_at": "2014-10-06T13:17:16.000-07:00",
      "waiting_list_enabled_during_locked": false,
      "waiting_list_enabled_during_sold_out": false,
      "questions": []
    },
    {
      "slug": "ou3bpu4nytk",
      "title": "Brown Bag Ticket",
      "archived": false,
      "default_quantity": 0,
      "donation": false,
      "enable_super_combo_summary": true,
      "end_at": "2014-12-02T16:00:00.000-08:00",
      "has_success_message": false,
      "has_fail_message": false,
      "invoice": false,
      "max_donation": null,
      "max_tickets_per_person": null,
      "metadata": null,
      "min_tickets_per_person": null,
      "min_donation": null,
      "not_a_ticket": false,
      "position": 14,
      "price": "1.0",
      "quantity": null,
      "question_ids": [],
      "request_company_name": false,
      "request_vat_number": false,
      "require_billing_address": false,
      "require_credit_card_for_sold_out_waiting_list": false,
      "require_email": true,
      "require_name": false,
      "secret": true,
      "show_price": true,
      "state_name": null,
      "start_at": "2014-10-23T07:22:00.000-07:00",
      "waiting_list_enabled_during_locked": false,
      "waiting_list_enabled_during_sold_out": false,
      "questions": []
    },
    {
      "slug": "cu6iipuvrd8",
      "title": "Test Ticket",
      "archived": false,
      "default_quantity": 0,
      "donation": false,
      "enable_super_combo_summary": true,
      "end_at": null,
      "has_success_message": false,
      "has_fail_message": false,
      "invoice": false,
      "max_donation": null,
      "max_tickets_per_person": null,
      "metadata": null,
      "min_tickets_per_person": null,
      "min_donation": null,
      "not_a_ticket": false,
      "position": 15,
      "price": null,
      "quantity": null,
      "question_ids": [],
      "request_company_name": null,
      "request_vat_number": null,
      "require_billing_address": null,
      "require_credit_card_for_sold_out_waiting_list": false,
      "require_email": true,
      "require_name": false,
      "secret": false,
      "show_price": true,
      "state_name": null,
      "start_at": null,
      "waiting_list_enabled_during_locked": false,
      "waiting_list_enabled_during_sold_out": false,
      "questions": []
    },
    {
      "slug": "t5lz7jzgdlu",
      "title": "A Test Ticket",
      "archived": false,
      "default_quantity": 0,
      "donation": true,
      "enable_super_combo_summary": true,
      "end_at": null,
      "has_success_message": false,
      "has_fail_message": false,
      "invoice": false,
      "max_donation": null,
      "max_tickets_per_person": 1,
      "metadata": null,
      "min_tickets_per_person": null,
      "min_donation": null,
      "not_a_ticket": false,
      "position": 16,
      "price": null,
      "quantity": null,
      "question_ids": [],
      "request_company_name": null,
      "request_vat_number": null,
      "require_billing_address": null,
      "require_credit_card_for_sold_out_waiting_list": false,
      "require_email": true,
      "require_name": false,
      "secret": false,
      "show_price": true,
      "state_name": null,
      "start_at": "2015-04-10T04:32:50.000-07:00",
      "waiting_list_enabled_during_locked": false,
      "waiting_list_enabled_during_sold_out": false,
      "questions": []
    },
    {
      "slug": "nl2aaxdijz8",
      "title": "A New Ticket",
      "archived": false,
      "default_quantity": 0,
      "donation": false,
      "enable_super_combo_summary": true,
      "end_at": "2020-12-03T04:00:00.000-08:00",
      "has_success_message": false,
      "has_fail_message": false,
      "invoice": false,
      "max_donation": null,
      "max_tickets_per_person": null,
      "metadata": null,
      "min_tickets_per_person": null,
      "min_donation": null,
      "not_a_ticket": false,
      "position": 17,
      "price": null,
      "quantity": null,
      "question_ids": [],
      "request_company_name": null,
      "request_vat_number": null,
      "require_billing_address": null,
      "require_credit_card_for_sold_out_waiting_list": false,
      "require_email": true,
      "require_name": false,
      "secret": false,
      "show_price": true,
      "state_name": null,
      "start_at": "2015-06-30T07:24:51.000-07:00",
      "waiting_list_enabled_during_locked": false,
      "waiting_list_enabled_during_sold_out": false,
      "questions": []
    },
    {
      "slug": "h6rkvpxnnuq",
      "title": "Phenomenal ticket",
      "archived": false,
      "default_quantity": 0,
      "donation": false,
      "enable_super_combo_summary": true,
      "end_at": "2020-12-03T04:00:00.000-08:00",
      "has_success_message": false,
      "has_fail_message": false,
      "invoice": false,
      "max_donation": null,
      "max_tickets_per_person": null,
      "metadata": null,
      "min_tickets_per_person": null,
      "min_donation": null,
      "not_a_ticket": false,
      "position": 18,
      "price": null,
      "quantity": null,
      "question_ids": [
        1012894
      ],
      "request_company_name": null,
      "request_vat_number": null,
      "require_billing_address": null,
      "require_credit_card_for_sold_out_waiting_list": false,
      "require_email": true,
      "require_name": false,
      "secret": false,
      "show_price": true,
      "state_name": null,
      "start_at": "2015-07-07T08:13:24.000-07:00",
      "waiting_list_enabled_during_locked": false,
      "waiting_list_enabled_during_sold_out": false,
      "questions": [
        {
          "id": 1012894,
          "title": "CV",
          "field_type": "File",
          "include_free_text_field": false,
          "required": false,
          "slug": "cv"
        }
      ]
    },
    {
      "slug": "rqjyjwd8hkc",
      "title": "A very expensive ticket",
      "archived": false,
      "default_quantity": 0,
      "donation": false,
      "enable_super_combo_summary": true,
      "end_at": "2020-12-03T04:00:00.000-08:00",
      "has_success_message": false,
      "has_fail_message": false,
      "invoice": false,
      "max_donation": null,
      "max_tickets_per_person": null,
      "metadata": null,
      "min_tickets_per_person": null,
      "min_donation": null,
      "not_a_ticket": false,
      "position": 19,
      "price": "99999999.0",
      "quantity": null,
      "question_ids": [],
      "request_company_name": null,
      "request_vat_number": null,
      "require_billing_address": null,
      "require_credit_card_for_sold_out_waiting_list": false,
      "require_email": true,
      "require_name": false,
      "secret": false,
      "show_price": true,
      "state_name": null,
      "start_at": "2015-07-12T04:14:24.000-07:00",
      "waiting_list_enabled_during_locked": false,
      "waiting_list_enabled_during_sold_out": false,
      "questions": []
    },
    {
      "slug": "x95tax2hvqk",
      "title": "Breaking Ticket",
      "archived": false,
      "default_quantity": 0,
      "donation": false,
      "enable_super_combo_summary": true,
      "end_at": "2020-12-03T04:00:00.000-08:00",
      "has_success_message": false,
      "has_fail_message": false,
      "invoice": false,
      "max_donation": null,
      "max_tickets_per_person": null,
      "metadata": null,
      "min_tickets_per_person": null,
      "min_donation": null,
      "not_a_ticket": false,
      "position": 20,
      "price": null,
      "quantity": null,
      "question_ids": [],
      "request_company_name": null,
      "request_vat_number": null,
      "require_billing_address": null,
      "require_credit_card_for_sold_out_waiting_list": false,
      "require_email": true,
      "require_name": false,
      "secret": false,
      "show_price": true,
      "state_name": null,
      "start_at": "2015-07-16T08:39:44.000-07:00",
      "waiting_list_enabled_during_locked": false,
      "waiting_list_enabled_during_sold_out": false,
      "questions": []
    },
    {
      "slug": "boiwqevf-he",
      "title": "Big Ticket",
      "archived": false,
      "default_quantity": 0,
      "donation": false,
      "enable_super_combo_summary": true,
      "end_at": "2020-12-03T04:00:00.000-08:00",
      "has_success_message": false,
      "has_fail_message": false,
      "invoice": false,
      "max_donation": null,
      "max_tickets_per_person": null,
      "metadata": null,
      "min_tickets_per_person": null,
      "min_donation": null,
      "not_a_ticket": false,
      "position": 21,
      "price": "2950.0",
      "quantity": null,
      "question_ids": [],
      "request_company_name": null,
      "request_vat_number": null,
      "require_billing_address": null,
      "require_credit_card_for_sold_out_waiting_list": false,
      "require_email": true,
      "require_name": false,
      "secret": false,
      "show_price": true,
      "state_name": null,
      "start_at": "2015-09-03T03:45:40.000-07:00",
      "waiting_list_enabled_during_locked": false,
      "waiting_list_enabled_during_sold_out": false,
      "questions": []
    },
    {
      "slug": "c-iaohrs5je",
      "title": "Special Secret Pete Ticket",
      "archived": false,
      "default_quantity": 0,
      "donation": false,
      "enable_super_combo_summary": true,
      "end_at": "2020-12-03T04:00:00.000-08:00",
      "has_success_message": false,
      "has_fail_message": false,
      "invoice": false,
      "max_donation": null,
      "max_tickets_per_person": null,
      "metadata": null,
      "min_tickets_per_person": null,
      "min_donation": null,
      "not_a_ticket": false,
      "position": 22,
      "price": "15000.0",
      "quantity": null,
      "question_ids": [],
      "request_company_name": false,
      "request_vat_number": false,
      "require_billing_address": null,
      "require_credit_card_for_sold_out_waiting_list": false,
      "require_email": true,
      "require_name": false,
      "secret": true,
      "show_price": true,
      "state_name": null,
      "start_at": "2015-09-25T03:28:03.000-07:00",
      "waiting_list_enabled_during_locked": false,
      "waiting_list_enabled_during_sold_out": false,
      "questions": []
    },
    {
      "slug": "rdq0gwlck5c",
      "title": "Thursday",
      "archived": false,
      "default_quantity": 1,
      "donation": false,
      "enable_super_combo_summary": true,
      "end_at": "2020-12-03T04:00:00.000-08:00",
      "has_success_message": false,
      "has_fail_message": false,
      "invoice": true,
      "max_donation": null,
      "max_tickets_per_person": null,
      "metadata": null,
      "min_tickets_per_person": 1,
      "min_donation": null,
      "not_a_ticket": false,
      "position": 23,
      "price": "10.0",
      "quantity": null,
      "question_ids": [],
      "request_company_name": true,
      "request_vat_number": null,
      "require_billing_address": null,
      "require_credit_card_for_sold_out_waiting_list": false,
      "require_email": true,
      "require_name": true,
      "secret": true,
      "show_price": true,
      "state_name": null,
      "start_at": "2015-12-17T04:46:33.000-08:00",
      "waiting_list_enabled_during_locked": false,
      "waiting_list_enabled_during_sold_out": false,
      "questions": []
    },
    {
      "slug": "l8kh-aoyhos",
      "title": "Dono Test",
      "archived": false,
      "default_quantity": 0,
      "donation": true,
      "enable_super_combo_summary": true,
      "end_at": "2020-12-01T04:00:00.000-08:00",
      "has_success_message": false,
      "has_fail_message": false,
      "invoice": false,
      "max_donation": null,
      "max_tickets_per_person": null,
      "metadata": "{\"metadata\":\"test\"}",
      "min_tickets_per_person": null,
      "min_donation": "110.0",
      "not_a_ticket": false,
      "position": 24,
      "price": "110.0",
      "quantity": 100,
      "question_ids": [],
      "request_company_name": null,
      "request_vat_number": null,
      "require_billing_address": null,
      "require_credit_card_for_sold_out_waiting_list": false,
      "require_email": true,
      "require_name": false,
      "secret": false,
      "show_price": true,
      "state_name": null,
      "start_at": "2016-05-11T11:15:48.000-07:00",
      "waiting_list_enabled_during_locked": false,
      "waiting_list_enabled_during_sold_out": false,
      "questions": []
    }
  ],
  "meta": {
    "current_page": 1,
    "next_page": 2,
    "prev_page": null,
    "total_pages": 2,
    "total_count": 27
  }
}